{
  "iisSettings": {
    "windowsAuthentication": true,
    "anonymousAuthentication": true,
    "iisExpress": {
      "applicationUrl": "http://localhost:9000",
      "sslPort": 0
    }
  },
  "$schema": "http://json.schemastore.org/launchsettings.json",
  "profiles": {
    "IIS Express": {
      "commandName": "IISExpress",
      "launchBrowser": false,
      "launchUrl": "values",
      "environmentVariables": {
        "ASPNETCORE_ENVIRONMENT": "Development"
      }
    },
    "MamXanh": {
      "commandName": "Project",
      "launchBrowser": false,
      "launchUrl": "values",
      "environmentVariables": {
        "ASPNETCORE_ENVIRONMENT": "Development"
      },
      "applicationUrl": "https://localhost:5001;http://localhost:5000"
    }
  }
}